EKSAMEN - Visualisering af biologiske datasæt 2021
…
PCA analysen viser ikke helt så meget andet end at det er virkelig blandet. Det ser ud til PC1 har været bedst til at opfange forskellene, men det er stadig ret blandet. 47% er også relativt “lille” mængde af fanget data af PC1 og PC2 tilsammen.

OPGAVE 2: Transcription factors

Åbn data

Kør følgende kode til at importere data omhandlende “transcription factors”.

SD1 <- read.csv("https://www.dropbox.com/s/hmaq6z0mr5at2t8/SD1.txt?dl=1",sep="\t")
SD2 <- read.csv("https://www.dropbox.com/s/e2ftr38gvj0jd3g/SD2_9TF.txt?dl=1",sep="\t")
SD1 <- SD1 %>% as_tibble
SD2 <- SD2 %>% as_tibble
SD1

## # A tibble: 18,936 x 4
##    Entrez_ID Gene  ESC_RPKM  EB_RPKM
##        <int> <chr>    <dbl>    <dbl>
##  1     11287 Pzp     0.505   0.00571
##  2     11298 Aanat   0.373   0.140  
##  3     11302 Aatk    0.0757  0.0669 
##  4     11303 Abca1   1.96    0.0511 
##  5     11304 Abca4   0.0411  0.109  
##  6     11305 Abca2   4.57    2.45   
##  7     11307 Abcg1   0.301   0.184  
##  8     11308 Abi1   56.2    76.9    
##  9     11350 Abl1   18.4    46.5    
## 10     11352 Abl2    7.54    3.79   
## # ... with 18,926 more rows

SD2

## # A tibble: 18,936 x 11
##    Entrez_ID Gene   E2f1   Mycn   Zfx     Myc  Klf4 Tcfcp2l1  Nanog   Oct4  Sox2
##        <int> <chr> <dbl>  <dbl> <dbl>   <dbl> <dbl>    <dbl>  <dbl>  <dbl> <dbl>
##  1     11287 Pzp   0     0.0798 0.153 0.228   0.115 0.000258 0.993  0.481  1.04 
##  2     11298 Aanat 0.385 1.99   1.90  1.81    1.47  2.38     2.63   1.78   0.403
##  3     11302 Aatk  0.335 0.584  1.71  0.922   0.895 1.17     0.280  1.47   1.74 
##  4     11303 Abca1 1.50  1.82   1.52  0.352   0.325 3.11     0.857  1.80   1.61 
##  5     11304 Abca4 0.399 0.0975 0.732 0.00427 0.363 0.306    1.32   1.95   0.491
##  6     11305 Abca2 1.52  0.379  2.87  1.54    2.48  0.572    0.0708 1.31   1.03 
##  7     11307 Abcg1 1.56  2.54   2.10  1.57    2.04  2.53     2.06   4.81   4.88 
##  8     11308 Abi1  2.17  1.25   0.356 0.583   1.87  0.387    2.65   1.21   1.40 
##  9     11350 Abl1  1.36  2.11   2.92  0.515   3.02  3.01     1.58   2.68   3.16 
## 10     11352 Abl2  2.25  2.16   3.27  2.22    2.06  0.827    2.65   0.0848 1.06 
## # ... with 18,926 more rows
…
Umiddelbart ser det ud til at de alle har samme fordeling, men varierer måske på en anden måde.

7) Få værdierne for de forskellige transcription factors ind i en enkel kolonne med navnet “values”, således at det tilsvarende tanscription factor navn fremgår i en kolonne, der er navngivet “TF”. Brug variablen Entrez_ID til at tilføje ekspression værdier fra SD1 til resulterende dataframe.

datajoin <- SD2 %>%
  select(-Gene) %>%
  pivot_longer(-Entrez_ID) %>%
  left_join(SD1)

## Joining, by = "Entrez_ID"

datajoin

## # A tibble: 170,424 x 6
##    Entrez_ID name        value Gene  ESC_RPKM EB_RPKM
##        <int> <chr>       <dbl> <chr>    <dbl>   <dbl>
##  1     11287 E2f1     0        Pzp      0.505 0.00571
##  2     11287 Mycn     0.0798   Pzp      0.505 0.00571
##  3     11287 Zfx      0.153    Pzp      0.505 0.00571
##  4     11287 Myc      0.228    Pzp      0.505 0.00571
##  5     11287 Klf4     0.115    Pzp      0.505 0.00571
##  6     11287 Tcfcp2l1 0.000258 Pzp      0.505 0.00571
##  7     11287 Nanog    0.993    Pzp      0.505 0.00571
##  8     11287 Oct4     0.481    Pzp      0.505 0.00571
##  9     11287 Sox2     1.04     Pzp      0.505 0.00571
## 10     11298 E2f1     0.385    Aanat    0.373 0.140  
## # ... with 170,414 more rows
…
9)

a) For hver af datasættene fra din nested dataframe (efter at du har fjernet nul-værdier), lav et scatter plot af log(ESC_RPKM+1) på y-aksen mod value på x-aksen og tilføj en lineær regression linje til plottene. Anvend gennemsigtighed i datapunkterne for at gøre dem nemmere at se.

myplotfunc <- ~(ggplot(.x,aes(value,log(ESC_RPKM+1)))) +
  geom_point(alpha=0.5) +
  geom_smooth(method = "lm",se=F)

cleanunnest <- datajoin_nest %>%
  unnest(cols = cleandata)

cleanunnest

## # A tibble: 144,237 x 7
## # Groups:   name [9]
##    name  data                      Entrez_ID value Gene  ESC_RPKM EB_RPKM
##    <chr> <list>                        <int> <dbl> <chr>    <dbl>   <dbl>
##  1 E2f1  <tibble[,5] [18,936 x 5]>     11298 0.385 Aanat   0.373   0.140 
##  2 E2f1  <tibble[,5] [18,936 x 5]>     11302 0.335 Aatk    0.0757  0.0669
##  3 E2f1  <tibble[,5] [18,936 x 5]>     11303 1.50  Abca1   1.96    0.0511
##  4 E2f1  <tibble[,5] [18,936 x 5]>     11304 0.399 Abca4   0.0411  0.109 
##  5 E2f1  <tibble[,5] [18,936 x 5]>     11305 1.52  Abca2   4.57    2.45  
##  6 E2f1  <tibble[,5] [18,936 x 5]>     11307 1.56  Abcg1   0.301   0.184 
##  7 E2f1  <tibble[,5] [18,936 x 5]>     11308 2.17  Abi1   56.2    76.9   
##  8 E2f1  <tibble[,5] [18,936 x 5]>     11350 1.36  Abl1   18.4    46.5   
##  9 E2f1  <tibble[,5] [18,936 x 5]>     11352 2.25  Abl2    7.54    3.79  
## 10 E2f1  <tibble[,5] [18,936 x 5]>     11363 1.14  Acadl  14.4    38.9   
## # ... with 144,227 more rows
…
